5’ Spice Site strength
…
IntersectRes=read.table("../data/SpliceSite/IntronicPAS_SS_intersectOrthoExon.txt",stringsAsFactors = F,sep="\t", col.names = c("chr",'ssstart','ssend','PAS', 'humanusage','passtrand', 'file', 'loc','exonchr', 'enonstart','exonend', 'score', 'strand', 'score2', 'geneinfo', 'overlap')) %>% filter(overlap==3)

IntersectRes_group= IntersectRes %>% group_by(PAS) %>% summarise(nExon=n())
nrow(IntersectRes_group)

[1] 10692

Filter :

PAS_5SS_both_filt= PAS_5SS_both %>% semi_join(IntersectRes_group, by="PAS") 

PAS_5SS_both_filt %>% group_by(PAS) %>% summarise(n=n()) %>% filter(n>1)

# A tibble: 212 x 2
   PAS             n
   <chr>       <int>
 1 chimp10327      2
 2 chimp108153     2
 3 chimp12642      2
 4 chimp130492     2
 5 chimp130494     2
 6 chimp132166     2
 7 chimp13702      2
 8 chimp13703      2
 9 chimp13858      2
10 chimp143287     2
# … with 202 more rows
…
